<?xml version="1.0" encoding="UTF-8"?>
<svg width="24px" height="12px" viewBox="0 0 24 12" version="1.1" xmlns="http://www.w3.org/2000/svg" xmlns:xlink="http://www.w3.org/1999/xlink">
    <!-- Generator: Sketch 52.6 (67491) - http://www.bohemiancoding.com/sketch -->
    <title>toggle_on</title>
    <desc>Created with Sketch.</desc>
    <g id="Page-1" stroke="none" stroke-width="1" fill="none" fill-rule="evenodd">
        <g id="Artboard" transform="translate(-448.000000, -166.000000)" fill-rule="nonzero">
            <g id="toggle_on" transform="translate(449.000000, 167.000000)">
                <rect id="Rectangle-Copy" fill="#E3E3E3" x="0" y="0" width="23" height="10" rx="5"></rect>
                <circle id="Oval-Copy" stroke="#DFDFDF" fill="#FFFFFF" cx="5" cy="5" r="5"></circle>
            </g>
        </g>
    </g>
</svg>